{
  "integrationFolder": "projects/foo-app/cypress/integration",
  "supportFile": "projects/foo-app/cypress/support/index.ts",
  "fixturesFolder": "projects/foo-app/cypress/fixtures",
  "screenshotsFolder": "projects/foo-app/cypress/screenshots",
  "videosFolder": "projects/foo-app/cypress/videos",
  "video": false,
  "pluginsFile": "projects/foo-app/cypress/plugins/index.js",
  "baseUrl": "http://localhost:4200"
}
